…
── Vérification des horizons (données journalières vs article mensuel) ──
> print(usable_obs)
  Horizon         Label Usable_obs Sufficient
1      21   h=21j (~1M)        303       TRUE
2     126  h=126j (~6M)        198       TRUE
3     252 h=252j (~12M)         72       TRUE

── Paramètres régression directe h-pas (sur le TRAIN) ──
> print(direct_params |> arrange(Country, Factor, Horizon))
# A tibble: 45 × 5
   Country Factor          Horizon     c_h gamma_h
   <chr>   <chr>             <dbl>   <dbl>   <dbl>
 1 BE      Beta1_Level          21  0.0944  0.980 
 2 BE      Beta1_Level         126  0.568   0.890 
 3 BE      Beta1_Level         252  1.28    0.737 
 4 BE      Beta2_Slope          21 -0.154   0.885 
 5 BE      Beta2_Slope         126 -0.754   0.430 
 6 BE      Beta2_Slope         252 -1.19    0.0979
 7 BE      Beta3_Curvature      21 -0.485   0.783 
 8 BE      Beta3_Curvature     126 -1.57    0.305 
 9 BE      Beta3_Curvature     252 -2.49   -0.102 
10 DE      Beta1_Level          21  0.0723  0.976 
# ℹ 35 more rows
# ℹ Use `print(n = ...)` to see more rows
…
